Yelp Big Data and Text Analysis with 7 million observations
…
Sentiment Analysis - Postive and Not So Postive Words of Mon Ami Gabi

  contributions <- yelp_review %>%
    filter(business_id == "4JNXUYY8wbaaDmk3BPzlWw") %>%
    unnest_tokens(word, text) %>%
    count(word,sort = TRUE) %>%
    ungroup() %>%
    
    inner_join(get_sentiments("afinn"), by = "word") %>%
    group_by(word) %>%
    summarize(occurences = n()
              )
  contributions 

## # A tibble: 1,177 x 2
##    word         occurences
##    <chr>             <int>
##  1 ability               1
##  2 absorbed              1
##  3 abused                1
##  4 accept                1
##  5 accepted              1
##  6 accepting             1
##  7 accepts               1
##  8 accident              1
##  9 accidental            1
## 10 accidentally          1
## #  with 1,167 more rows
…
